{
  "name": "Country",
  "fields": [
    {
      "fieldName": "name",
      "fieldType": "String",
      "fieldValidateRules": [
        "required"
      ]
    },
    {
      "fieldName": "code",
      "fieldType": "String",
      "fieldValidateRules": [
        "required",
        "maxlength"
      ],
      "fieldValidateRulesMaxlength": "20"
    },
    {
      "fieldName": "codeA2",
      "fieldType": "String",
      "fieldValidateRules": [
        "required",
        "maxlength"
      ],
      "fieldValidateRulesMaxlength": "2"
    },
    {
      "fieldName": "codeA3",
      "fieldType": "String",
      "fieldValidateRules": [
        "required",
        "maxlength"
      ],
      "fieldValidateRulesMaxlength": "3"
    },
    {
      "fieldName": "flag",
      "fieldType": "String",
      "fieldValidateRules": [
        "maxlength"
      ],
      "fieldValidateRulesMaxlength": "255"
    },
    {
      "fieldName": "active",
      "fieldType": "Boolean",
      "fieldValidateRules": [
        "required"
      ]
    }
  ],
  "relationships": [],
  "changelogDate": "20201007075120",
  "entityTableName": "country",
  "dto": "no",
  "pagination": "pagination",
  "service": "serviceClass",
  "jpaMetamodelFiltering": true,
  "fluentMethods": true,
  "readOnly": false,
  "embedded": false,
  "clientRootFolder": "geodataService",
  "applications": "*",
  "microserviceName": "geodataService"
}
